2.599148127746582304e+02
2.765291233062744070e+01
1.809957008361816477e+01
1.615930481910705652e+01
1.507262496948242259e+01
1.407100217819213839e+01
1.319100666046142578e+01
1.243808080673217731e+01
1.176934248924255400e+01
1.118626896858215325e+01
1.084111759185791080e+01
1.040336326599121008e+01
1.010525916099548382e+01
9.874816579818725515e+00
9.626195125579833700e+00
9.473724975585938068e+00
9.164778285026550009e+00
9.030840196609496218e+00
8.848325381278991486e+00
8.852658977508545135e+00
8.783240675926208496e+00
8.786982541084290332e+00
8.729691495895385955e+00
8.490123195648193288e+00
8.206036601066589498e+00
8.222838225364684561e+00
8.077937664985656241e+00
7.973183808326720801e+00
7.932010669708251527e+00
7.941754636764525976e+00
7.873414168357848908e+00
7.848570532798767374e+00
7.714014835357666300e+00
7.603361110687256286e+00
7.610420441627502086e+00
7.582912402153015208e+00
7.550420813560485556e+00
7.507183094024657777e+00
7.569442429542541539e+00
7.354579110145568421e+00
7.333672456741332724e+00
7.356474566459655584e+00
7.376361546516418066e+00
7.248697261810303161e+00
7.259815950393676331e+00
7.213630146980285929e+00
7.218387756347656392e+00
7.186113901138305948e+00
7.168852353096008656e+00
7.207792181968688539e+00
